Wrangling data in RStudio with the Tidyverse
…
---

## Modifying columns with mutate

`mutate` allows us to modify or add columns to tibbles:

```r
journeys %>%
  mutate(date = dmy(date)) %>%
  select(date, everything()) 
```

```
## # A tibble: 1,719 x 11
##    date       start.country start.city start.latitude start.longitude
##    <date>     <chr>         <chr>               <dbl>           <dbl>
##  1 1905-02-25 DEU           Mockethal            51.0            14.0
##  2 1905-03-09 DEU           Mockethal            51.0            14.0
##  3 1905-03-11 DEU           Mockethal            51.0            14.0
##  4 1905-03-20 DEU           Mockethal            51.0            14.0
##  5 1905-03-25 DEU           Mockethal            51.0            14.0
##  6 1905-04-02 DEU           Mockethal            51.0            14.0
##  7 1905-04-04 DEU           Mockethal            51.0            14.0
##  8 1905-04-20 DEU           Mockethal            51.0            14.0
##  9 1905-04-28 DEU           Mockethal            51.0            14.0
## 10 1905-05-04 DEU           Mockethal            51.0            14.0
## # ... with 1,709 more rows, and 6 more variables: end.country <chr>,
## #   end.city <chr>, end.latitude <dbl>, end.longitude <dbl>,
## #   journey <chr>, number.of.letters <int>
```
…
