Interactive Charts with highcharter
…
We can fix this with a bit of jerry rigging using `tidyr` and `dplyr`

---

```r
tarantino %>%
  filter(complete.cases(.)) %>%
  count(word, movie) %>%
  group_by(word) %>%
  spread(movie, n, fill = 0)
```

```
## # A tibble: 60 x 8
## # Groups:   word [60]
##    word  `Django Unchain… `Inglorious Bas… `Jackie Brown` `Kill Bill: Vol…
##    <chr>            <dbl>            <dbl>          <dbl>            <dbl>
##  1 ass                28.               6.            52.               3.
##  2 asses               0.               0.             0.               0.
##  3 assh…               0.               0.             0.               0.
##  4 assh…               0.               0.             0.               0.
##  5 assh…               0.               0.             0.               0.
##  6 bast…               1.               0.             0.               2.
##  7 bast…               0.               0.             0.               0.
##  8 bitch              10.               1.            13.               7.
##  9 bitc…               5.               1.             1.               1.
## 10 bull…               0.               0.             3.               1.
## # ... with 50 more rows, and 3 more variables: `Kill Bill: Vol. 2` <dbl>,
## #   `Pulp Fiction` <dbl>, `Reservoir Dogs` <dbl>
```

---

```r
tarantino %>%
  filter(complete.cases(.)) %>%
  count(word, movie) %>%
  group_by(word) %>%
  spread(movie, n, fill = 0) %>%
  gather(movie, count, 2:8)
```

```
## # A tibble: 420 x 3
## # Groups:   word [60]
##    word     movie            count
##    <chr>    <chr>            <dbl>
##  1 ass      Django Unchained   28.
##  2 asses    Django Unchained    0.
##  3 asshead  Django Unchained    0.
##  4 asshole  Django Unchained    0.
##  5 assholes Django Unchained    0.
##  6 bastard  Django Unchained    1.
##  7 bastards Django Unchained    0.
##  8 bitch    Django Unchained   10.
##  9 bitches  Django Unchained    5.
## 10 bullshit Django Unchained    0.
## # ... with 410 more rows
```
…
```r
tarantino_swears <- tarantino %>%
  filter(complete.cases(.)) %>%
  count(word, movie) %>%
  group_by(word) %>%
  spread(movie, n, fill = 0) %>%
  gather(movie, count, 2:8) %>%
  mutate(total = sum(count)) %>%
  arrange(desc(total))
tarantino_swears
```

```
## # A tibble: 420 x 4
## # Groups:   word [60]
##    word    movie               count total
##    <chr>   <chr>               <dbl> <dbl>
##  1 fucking Django Unchained      15.  407.
##  2 fucking Inglorious Basterds    9.  407.
##  3 fucking Jackie Brown          46.  407.
##  4 fucking Kill Bill: Vol. 1      5.  407.
##  5 fucking Kill Bill: Vol. 2     19.  407.
##  6 fucking Pulp Fiction         133.  407.
##  7 fucking Reservoir Dogs       180.  407.
##  8 shit    Django Unchained      17.  221.
##  9 shit    Inglorious Basterds    3.  221.
## 10 shit    Jackie Brown          66.  221.
## # ... with 410 more rows
```
…
