Interactive Charts with htmlwidgets
…
---

# Tallying data

What function do we use to calculate hierarchical tallies in our data?

--

```r
tarantino %>%
  count(word, movie)
```

```
## # A tibble: 166 x 3
##    word    movie                   n
##    <chr>   <chr>               <int>
##  1 ass     Django Unchained       28
##  2 ass     Inglorious Basterds     6
##  3 ass     Jackie Brown           52
##  4 ass     Kill Bill: Vol. 1       3
##  5 ass     Kill Bill: Vol. 2       7
##  6 ass     Pulp Fiction           31
##  7 ass     Reservoir Dogs         13
##  8 asses   Pulp Fiction            3
##  9 asses   Reservoir Dogs          1
## 10 asshead Reservoir Dogs          1
## # ... with 156 more rows
```
…
--

- group_by
- mutate **not** summarise as we don't want to throw away columns

```r
tarantino %>%
  count(word, movie) %>%
  group_by(word) %>%
  mutate(total.n = sum(n))
```

```
## # A tibble: 166 x 4
## # Groups:   word [61]
##    word    movie                   n total.n
##    <chr>   <chr>               <int>   <int>
##  1 ass     Django Unchained       28     140
##  2 ass     Inglorious Basterds     6     140
##  3 ass     Jackie Brown           52     140
##  4 ass     Kill Bill: Vol. 1       3     140
##  5 ass     Kill Bill: Vol. 2       7     140
##  6 ass     Pulp Fiction           31     140
##  7 ass     Reservoir Dogs         13     140
##  8 asses   Pulp Fiction            3       4
##  9 asses   Reservoir Dogs          1       4
## 10 asshead Reservoir Dogs          1       1
## # ... with 156 more rows
```
…
